<?xml version="1.0" encoding="utf-8"?>
<!-- Generator: Adobe Illustrator 22.1.0, SVG Export Plug-In . SVG Version: 6.00 Build 0)  -->
<svg version="1.1" id="Capa_1" xmlns="http://www.w3.org/2000/svg" xmlns:xlink="http://www.w3.org/1999/xlink" x="0px" y="0px"
	 viewBox="0 0 56.3 54" style="enable-background:new 0 0 56.3 54;" xml:space="preserve">
<style type="text/css">
	.st0{fill-rule:evenodd;clip-rule:evenodd;fill:#FFFFFF;}
	.st1{fill:#FFFFFF;}
	.st2{fill:#B99028;}
	.st3{fill:#F5ECDC;}
	.st4{fill:url(#SVGID_1_);}
</style>
<path class="st2" d="M54.4,43.6c-3.9-3.6-7.7-7.2-11.6-10.7c1.6-3.1,2.5-6.6,2.5-10.2C45.2,10.1,35.1,0,22.6,0S0,10.1,0,22.6
	s10.1,22.6,22.6,22.6c4.3,0,8.4-1.2,11.8-3.3c3.8,3.5,7.5,6.9,11.3,10.4C51.5,57.7,60.2,49,54.4,43.6z M22.6,37
	c-7.9,0-14.4-6.4-14.4-14.4S14.7,8.2,22.6,8.2c7.9,0,14.4,6.4,14.4,14.4S30.5,37,22.6,37z"/>
</svg>
