<?xml version="1.0" encoding="utf-8"?>
<!-- Generator: Adobe Illustrator 22.1.0, SVG Export Plug-In . SVG Version: 6.00 Build 0)  -->
<svg version="1.1" id="Capa_1" xmlns="http://www.w3.org/2000/svg" xmlns:xlink="http://www.w3.org/1999/xlink" x="0px" y="0px"
	 viewBox="0 0 85.2 54" style="enable-background:new 0 0 85.2 54;" xml:space="preserve">
<style type="text/css">
	.st0{fill-rule:evenodd;clip-rule:evenodd;fill:#FFFFFF;}
	.st1{fill:#FFFFFF;}
	.st2{fill:#B99028;}
	.st3{fill:#F5ECDC;}
	.st4{fill:url(#SVGID_1_);}
</style>
<g>
	<path class="st2" d="M57.4,25.2c0,3-0.9,5.8-2.5,8.1c2.5,1.9,4.5,4.2,6.1,6.6h24.2c0,0-2.1-12.2-10.5-18.1
		c-2.6,2.4-6.1,3.9-9.9,3.9c-2.8,0-5.3-0.8-7.6-2.1C57.3,24,57.4,24.6,57.4,25.2z"/>
	<circle class="st2" cx="42.8" cy="25.2" r="11"/>
	<path class="st2" d="M52.5,35.9c-2.6,2.4-6.1,3.9-9.9,3.9c-3.8,0-7.2-1.4-9.8-3.8c-8.2,5.9-10.6,18-10.6,18H63
		C63,54,60.9,41.8,52.5,35.9z"/>
	<circle class="st2" cx="20.5" cy="11.2" r="11"/>
	<circle class="st2" cx="65" cy="11" r="11"/>
	<path class="st2" d="M30.5,33.1c-1.5-2.3-2.4-5-2.4-8c0-0.6,0-1.2,0.1-1.7c-2.3,1.5-5,2.4-7.9,2.4c-3.8,0-7.2-1.4-9.8-3.8
		C2.4,27.9,0,40,0,40h24.1C25.8,37.5,27.9,35.1,30.5,33.1z"/>
</g>
</svg>
