<?xml version="1.0" encoding="utf-8"?>
<!-- Generator: Adobe Illustrator 22.1.0, SVG Export Plug-In . SVG Version: 6.00 Build 0)  -->
<svg version="1.1" id="Capa_1" xmlns="http://www.w3.org/2000/svg" xmlns:xlink="http://www.w3.org/1999/xlink" x="0px" y="0px"
	 viewBox="0 0 24.1 25" style="enable-background:new 0 0 24.1 25;" xml:space="preserve">
<style type="text/css">
	.st0{fill:#B99028;}
	.st1{fill:#8CC63F;}
	.st2{fill:#D4145A;}
	.st3{fill:#F15A24;}
	.st4{fill:#FFFFFF;}
</style>
<g>
	<g>
		<g>
			<path class="st2" d="M18.9,12.3v-9C18.9,2,17.9,1,16.6,1h-1.2c0-0.1,0-0.2,0-0.2c0-1-1.6-1-1.6,0c0,0.1,0,0.2,0,0.2h-3.5
				c0-0.1,0-0.2,0-0.2c0-1-1.6-1-1.6,0c0,0.1,0,0.2,0,0.2H5.3c0-0.1,0-0.2,0-0.2c0-1-1.6-1-1.6,0c0,0.1,0,0.2,0,0.2H2.3
				C1.1,1,0,2,0,3.3v14.2c0,1.3,1.1,2.3,2.3,2.3h9.1c0.6,2.9,3.2,5.1,6.2,5.1c3.5,0,6.4-2.9,6.4-6.4C24.1,15.5,21.9,12.9,18.9,12.3z
				 M1.3,3.3c0-0.6,0.5-1,1-1h1.4c0,0.1,0,0.3,0,0.4c0,1,1.6,1,1.6,0c0-0.1,0-0.3,0-0.4h3.5c0,0.1,0,0.3,0,0.4c0,1,1.6,1,1.6,0
				c0-0.1,0-0.3,0-0.4h3.5c0,0.1,0,0.3,0,0.4c0,1,1.6,1,1.6,0c0-0.1,0-0.3,0-0.4h1.2c0.6,0,1,0.5,1,1v2.9H1.3V3.3z M1.3,17.6v-10
				h16.3v4.6c-3.5,0.1-6.3,2.9-6.3,6.4h-9C1.8,18.6,1.3,18.2,1.3,17.6z M17.7,23.7c-2.5,0-4.7-1.9-5-4.3l0-0.1c0-0.1,0-0.3,0-0.4
				c0-0.1,0-0.1,0-0.2c0,0,0,0,0,0c0-2.8,2.3-5.1,5.1-5.1c0.1,0,0.2,0,0.3,0c0.1,0,0.2,0,0.2,0l0.1,0c2.5,0.3,4.5,2.4,4.5,5
				C22.8,21.4,20.5,23.7,17.7,23.7z"/>
			<path class="st2" d="M19.1,16.1c-0.5,0.5-0.9,0.9-1.4,1.4c-0.5-0.5-0.9-0.9-1.4-1.4c-0.7-0.7-1.8,0.4-1.1,1.1
				c0.5,0.5,0.9,0.9,1.4,1.4c-0.5,0.5-0.9,0.9-1.4,1.4c-0.7,0.7,0.4,1.8,1.1,1.1c0.5-0.5,0.9-0.9,1.4-1.4c0.5,0.5,0.9,0.9,1.4,1.4
				c0.7,0.7,1.8-0.4,1.1-1.1c-0.5-0.5-0.9-0.9-1.4-1.4c0.5-0.5,0.9-0.9,1.4-1.4C20.9,16.5,19.8,15.4,19.1,16.1z"/>
		</g>
		<circle class="st2" cx="9.4" cy="10" r="1.1"/>
		<circle class="st2" cx="14.6" cy="10" r="1.1"/>
		<circle class="st2" cx="9.3" cy="14.5" r="1.1"/>
		<circle class="st2" cx="3.9" cy="14.5" r="1.1"/>
	</g>
</g>
</svg>
