<?xml version="1.0" encoding="utf-8"?>
<!-- Generator: Adobe Illustrator 22.1.0, SVG Export Plug-In . SVG Version: 6.00 Build 0)  -->
<svg version="1.1" id="Capa_1" xmlns="http://www.w3.org/2000/svg" xmlns:xlink="http://www.w3.org/1999/xlink" x="0px" y="0px"
	 viewBox="0 0 20.5 28.4" style="enable-background:new 0 0 20.5 28.4;" xml:space="preserve">
<style type="text/css">
	.st0{fill:#B99028;}
	.st1{fill:#8CC63F;}
	.st2{fill:#D4145A;}
	.st3{fill:#F15A24;}
	.st4{fill:#FFFFFF;}
</style>
<g>
	<path class="st0" d="M17.5,23c-0.4,0-0.9,0-1.3,0c0-0.4,0-0.9,0-1.3c0-0.7-1.1-0.7-1.1,0c0,0.4,0,0.9,0,1.3c-0.4,0-0.9,0-1.3,0
		C13,23,13,24,13.7,24c0.4,0,0.9,0,1.3,0c0,0.4,0,0.9,0,1.3c0,0.7,1.1,0.7,1.1,0c0-0.4,0-0.9,0-1.3c0.4,0,0.9,0,1.3,0
		C18.2,24,18.2,23,17.5,23z"/>
	<path class="st0" d="M16.4,18.7V8.4c0-0.4-0.1-0.7-0.3-1l-4.8-6.6C10.9,0.3,10.4,0,9.8,0h-8C0.8,0,0,0.8,0,1.8v20.7
		c0,1,0.8,1.8,1.8,1.8h9c0.4,2.3,2.4,4.1,4.8,4.1c2.7,0,4.9-2.2,4.9-4.9C20.5,21.1,18.7,19,16.4,18.7z M10,0.8
		c0.3,0,0.5,0.2,0.7,0.4l4.8,6.6c0.1,0.1,0.1,0.3,0.2,0.4h-4.1c-0.8,0-1.5-0.7-1.5-1.5V0.8z M1.8,23.5c-0.6,0-1-0.5-1-1V1.8
		c0-0.6,0.5-1,1-1h7.3v6c0,1.3,1,2.3,2.3,2.3h4.1v9.5c-2.7,0-4.9,2.2-4.9,4.9c0,0,0,0,0,0H1.8z M15.6,27.4c-2.1,0-3.9-1.7-3.9-3.9
		s1.7-3.9,3.9-3.9s3.9,1.7,3.9,3.9S17.7,27.4,15.6,27.4z"/>
</g>
</svg>
