<?xml version="1.0" encoding="utf-8"?>
<!-- Generator: Adobe Illustrator 22.1.0, SVG Export Plug-In . SVG Version: 6.00 Build 0)  -->
<svg version="1.1" id="Capa_1" xmlns="http://www.w3.org/2000/svg" xmlns:xlink="http://www.w3.org/1999/xlink" x="0px" y="0px"
	 viewBox="0 0 29.5 18.6" style="enable-background:new 0 0 29.5 18.6;" xml:space="preserve">
<style type="text/css">
	.st0{fill:#B99028;}
	.st1{fill:#8CC63F;}
	.st2{fill:#D4145A;}
	.st3{fill:#F15A24;}
	.st4{fill:#FFFFFF;}
</style>
<g>
	<g>
		<g>
			<path class="st1" d="M8.6,9.6l0.8-0.4L7.4,4.3C7.2,4,6.9,3.8,6.6,3.8C6.3,3.8,5.9,4,5.8,4.3L3.4,9.2l0.8,0.4l0.9-1.9
				c0.1-0.2,0.2-0.3,0.4-0.3h1.9c0.2,0,0.3,0.1,0.4,0.3L8.6,9.6z M5.7,6.5l0.7-1.4C6.4,5,6.6,5,6.7,5.1l0.6,1.4H5.7z"/>
			<g>
				<path class="st1" d="M24.2,6.7V1.9c0-1-0.8-1.9-1.9-1.9H1.9C0.8,0,0,0.8,0,1.9v9.6c0,1,0.8,1.9,1.9,1.9h15.7
					c0.4,2.9,2.9,5.2,5.9,5.2c3.3,0,6-2.7,6-6C29.5,9.6,27.2,7,24.2,6.7z M11.4,11.9H1.9c-0.2,0-0.4-0.2-0.4-0.4V1.9
					c0-0.2,0.2-0.4,0.4-0.4h9.5V11.9z M12.9,11.9V1.5h9.5c0.2,0,0.4,0.2,0.4,0.4v4.8c-1,0.1-1.9,0.5-2.7,1.1V7.3c0,0,0-0.1-0.1-0.1
					h-2.5c0,0-0.1,0-0.1,0.1v1.1c0,0,0,0.1,0.1,0.1h0.4l0.1,0.2L18,9h-0.9v0.4h1.5c-0.5,0.7-0.8,1.6-0.9,2.5H12.9z M19.6,8.1
					C19.6,8.1,19.6,8.1,19.6,8.1l-1.8,0l0,0V7.7l0,0h1.8l0,0V8.1z M19.2,8.5l0,0.1l0,0.1C19,8.8,18.9,8.9,18.8,9h-0.4l-0.1-0.5H19.2
					z M23.6,17.1c-2.5,0-4.5-2-4.5-4.5s2-4.5,4.5-4.5s4.5,2,4.5,4.5S26,17.1,23.6,17.1z"/>
				<rect x="17.2" y="6.6" class="st1" width="3" height="0.4"/>
				<path class="st1" d="M16.8,5.6L16.8,5.6l0-1.4c0-0.1,0-0.1-0.2-0.1h-1.5C15,4,15,4.1,15,4.2v1.4h-0.2c0,0-0.1,0-0.1,0.1v0.9H15
					v2.8h0.4V8.6h0.9v0.3c0,0.1-0.1,0.2-0.2,0.2c-0.1,0-0.2,0-0.3-0.1l0,0.5c0.2,0,0.3,0,0.4,0c0.1,0,0.2,0,0.3-0.1
					c0.1-0.1,0.2-0.2,0.2-0.4V6.6L17,6.6c0.1-0.3,0.2-0.6,0.2-0.9L16.8,5.6z M15.4,4.5C15.4,4.4,15.4,4.4,15.4,4.5l0.9-0.1
					c0,0,0.1,0,0.1,0.1v0.2h-0.6c-0.1,0-0.1,0-0.1,0.1v0.8h-0.2V4.5z M16.3,5.1v0.5H16V5.1c0,0,0,0,0,0H16.3z M16.3,8.2h-0.9V7.7
					h0.9V8.2z M16.3,7.3h-0.9V6.9c0,0,0,0,0,0h0.8c0,0,0,0,0,0V7.3z M16.6,6.5h-1.4V6c0,0,0,0,0,0h1.4c0,0,0.1,0,0.1,0.1L16.6,6.5z"
					/>
				<path class="st1" d="M20,6.3C20.1,6.3,20.1,6.3,20,6.3l0.1-2c0,0,0-0.1-0.1-0.1h-0.7V3.9h-0.4v0.4h-0.4V3.9H18v0.4h-0.8
					c0,0-0.1,0-0.1,0.1v1.9c0,0,0,0.1,0.1,0.1H20z M19.3,4.7h0.4l0,0v0.4h-0.4V4.7z M19.3,5.5h0.4v0.4l0,0h-0.4V5.5z M18.4,4.7h0.4
					v0.4h-0.4V4.7z M18.4,5.5h0.4v0.4h-0.4V5.5z M17.6,4.7C17.6,4.7,17.6,4.7,17.6,4.7l0.4,0v0.4h-0.4V4.7z M17.6,5.5H18v0.4h-0.4
					l0,0V5.5z"/>
			</g>
		</g>
		<g>
			<path class="st1" d="M21.4,12.8c0.6,0.6,1.2,1.3,1.8,1.9c0.2,0.2,0.6,0.2,0.7-0.1c0.7-1.2,1.3-2.4,2-3.7c0.3-0.5-0.5-1-0.8-0.5
				c-0.6,1-1.7,3.1-1.7,3.1s-0.7-0.8-1.3-1.5C21.6,11.7,21,12.4,21.4,12.8L21.4,12.8z"/>
		</g>
	</g>
</g>
</svg>
