<?xml version="1.0" encoding="utf-8"?>
<!-- Generator: Adobe Illustrator 22.1.0, SVG Export Plug-In . SVG Version: 6.00 Build 0)  -->
<svg version="1.1" id="Capa_1" xmlns="http://www.w3.org/2000/svg" xmlns:xlink="http://www.w3.org/1999/xlink" x="0px" y="0px"
	 viewBox="0 0 32.3 33.6" style="enable-background:new 0 0 32.3 33.6;" xml:space="preserve">
<style type="text/css">
	.st0{fill:#B99028;}
	.st1{fill:#8CC63F;}
	.st2{fill:#D4145A;}
	.st3{fill:#F15A24;}
	.st4{fill:#FFFFFF;}
</style>
<g>
	<g>
		<g>
			<path class="st0" d="M13.1,14.6c-4,0-7.3-3.3-7.3-7.3S9.1,0,13.1,0s7.3,3.3,7.3,7.3S17.1,14.6,13.1,14.6z M13.1,1.5
				c-3.2,0-5.8,2.6-5.8,5.8s2.6,5.8,5.8,5.8s5.8-2.6,5.8-5.8S16.3,1.5,13.1,1.5z"/>
		</g>
		<path class="st0" d="M23.1,15.3c-0.4,0-0.9,0-1.3,0.1c-0.7-0.9-1.5-1.7-2.5-2.4l-0.5-0.3l-0.4,0.4c-1.5,1.4-3.4,2.1-5.4,2.1
			c-2,0-3.8-0.7-5.3-2.1l-0.4-0.4l-0.5,0.4C1.7,16.8,0.2,24,0.2,24.3L0,25.2h14c0.4,4.7,4.3,8.4,9.1,8.4c5,0,9.1-4.1,9.1-9.1
			S28.2,15.3,23.1,15.3z M7.2,14.7c1.7,1.3,3.7,2,5.8,2c2.2,0,4.2-0.7,5.9-2.1c0.5,0.4,0.9,0.8,1.2,1.2C16.8,17,14.3,20,14,23.7H1.9
			C2.4,21.8,3.9,17.4,7.2,14.7z M23.1,31.6c-3.9,0-7.1-3.2-7.1-7.1s3.2-7.1,7.1-7.1c3.9,0,7.1,3.2,7.1,7.1S27.1,31.6,23.1,31.6z"/>
	</g>
	<path class="st0" d="M26.8,23.4c-0.9,0-1.7,0-2.6,0c0-0.9,0-1.7,0-2.6c0-1.4-2.1-1.4-2.1,0c0,0.9,0,1.7,0,2.6c-0.9,0-1.7,0-2.6,0
		c-1.4,0-1.4,2.1,0,2.1c0.9,0,1.7,0,2.6,0c0,0.9,0,1.7,0,2.6c0,1.4,2.1,1.4,2.1,0c0-0.9,0-1.7,0-2.6c0.9,0,1.7,0,2.6,0
		C28.1,25.5,28.1,23.4,26.8,23.4z"/>
</g>
</svg>
