<?xml version="1.0" encoding="utf-8"?>
<!-- Generator: Adobe Illustrator 22.1.0, SVG Export Plug-In . SVG Version: 6.00 Build 0)  -->
<svg version="1.1" id="Capa_1" xmlns="http://www.w3.org/2000/svg" xmlns:xlink="http://www.w3.org/1999/xlink" x="0px" y="0px"
	 viewBox="0 0 30.7 23.7" style="enable-background:new 0 0 30.7 23.7;" xml:space="preserve">
<style type="text/css">
	.st0{fill:#B99028;}
	.st1{fill:#8CC63F;}
	.st2{fill:#D4145A;}
	.st3{fill:#F15A24;}
	.st4{fill:#FFFFFF;}
</style>
<g>
	<g>
		<path class="st0" d="M7.7,7.3C8,7,8.3,6.6,8.6,6.2C8.8,6,9.1,5.7,9.3,5.5c0.2-0.1,0.2-0.2-0.2-0.2c0,0.2,0,0.5-0.1,0.7
			c-0.5,1.3-0.7,3-0.8,4.4c-0.2,2.1,1.1,3,2.6,1.3c0.8-0.9,1.5-2,2.2-3.1c0.4-0.6,0.7-1.2,1.1-1.7c0.1-0.1,0.4-0.5,0.5-0.6
			c0.1-0.1,0.1-0.1,0.2-0.2c-0.7-0.5-0.9-0.3-0.7,0.4c-0.3,0.7-0.8,2.9,0.3,3.3c1.4,0.5,1.5-1.8,2.3-2.1c0.7-0.3,0.4-1.4-0.3-1.2
			c-0.5,0.2-0.8,0.6-1.1,1.1C15.1,7.9,15,8.1,15,8.4c-0.1-0.3,0.2-0.9,0.2-1.2c0.1-0.6,0.4-2.3-0.8-2.2c-0.7,0.1-1.2,1.2-1.6,1.7
			c-0.8,1.2-1.6,2.5-2.4,3.6c-0.1,0.1-0.9,1.3-1.1,1.2C9.3,11.4,9.7,9.1,9.7,9c0.2-1.2,0.9-2.9,0.6-4.1C9.7,2.6,7.2,6,6.6,6.7
			C6.2,7.4,7.2,8,7.7,7.3L7.7,7.3z"/>
	</g>
	<g>
		<path class="st0" d="M30.5,12.9L26.2,2.4l-3.9,8.3c-0.5-0.4-1.1-0.6-1.8-0.8L25.1,0H8C6.7,0,5.6,0.7,5.1,1.8L0.3,12.1
			c-0.5,1-0.4,2.1,0.2,3c0.6,0.9,1.6,1.5,2.7,1.5h8.2c0,0,0,0,0,0c0,3.9,3.2,7.1,7.1,7.1s7.1-3.2,7.1-7.1c0,0,0,0,0,0H28
			C29.9,16.6,31.3,14.7,30.5,12.9z M3.2,15.1c-0.6,0-1.1-0.3-1.4-0.8s-0.4-1.1-0.1-1.6L6.4,2.5c0.3-0.6,0.9-1,1.5-1h14.8L19,9.6
			c-0.2,0-0.4,0-0.5,0c-3.4,0-6.2,2.4-6.9,5.6H3.2z M18.3,11.1l-1.9,4.1h-3.3C13.7,12.8,15.8,11.1,18.3,11.1z M24,16.6
			c0,3.1-2.5,5.6-5.6,5.6s-5.6-2.5-5.6-5.6c0,0,0,0,0,0h4.5l2.5-5.4c0.6,0.2,1.2,0.4,1.8,0.8l-2.1,4.6L24,16.6
			C24,16.6,24,16.6,24,16.6z"/>
		<circle class="st4" cx="18.5" cy="16.6" r="5.6"/>
		<path class="st0" d="M21.2,15.9c-0.6,0-1.3,0-1.9,0c0-0.6,0-1.3,0-1.9c0-1-1.6-1-1.6,0c0,0.6,0,1.3,0,1.9c-0.6,0-1.3,0-1.9,0
			c-1,0-1,1.6,0,1.6c0.6,0,1.3,0,1.9,0c0,0.6,0,1.3,0,1.9c0,1,1.6,1,1.6,0c0-0.6,0-1.3,0-1.9c0.6,0,1.3,0,1.9,0
			C22.2,17.4,22.2,15.9,21.2,15.9z"/>
	</g>
</g>
</svg>
