<?xml version="1.0" encoding="utf-8"?>
<!-- Generator: Adobe Illustrator 22.1.0, SVG Export Plug-In . SVG Version: 6.00 Build 0)  -->
<svg version="1.1" id="Capa_1" xmlns="http://www.w3.org/2000/svg" xmlns:xlink="http://www.w3.org/1999/xlink" x="0px" y="0px"
	 viewBox="0 0 25.1 28.1" style="enable-background:new 0 0 25.1 28.1;" xml:space="preserve">
<style type="text/css">
	.st0{fill:#B99028;}
	.st1{fill:#8CC63F;}
	.st2{fill:#D4145A;}
	.st3{fill:#F15A24;}
	.st4{fill:#FFFFFF;}
</style>
<g>
	<g>
		<g>
			<path class="st2" d="M4.7,6.3c0,0.2-0.2,0.3-0.2,0.3h0L5,8.2c0.1,0,1-0.4,1.3-1.4c0.3-0.9,0-1.9-0.9-3.1C5,3.1,4.8,2.5,4.8,2.1
				c0.1-0.3,0.3-0.5,0.3-0.5L4.3,0c-0.1,0.1-1,0.6-1.2,1.7C2.9,2.6,3.2,3.7,4,4.8C4.7,5.7,4.7,6.1,4.7,6.3z"/>
			<path class="st2" d="M8.7,6.3c0,0.2-0.2,0.3-0.2,0.3c0,0,0,0,0,0l0.6,1.7c0.1,0,1-0.4,1.3-1.4c0.3-0.9,0-1.9-0.9-3.1
				C9.1,3.1,8.9,2.5,8.9,2.1C9,1.7,9.3,1.6,9.3,1.6L8.4,0c-0.1,0.1-1,0.6-1.2,1.7C7,2.6,7.3,3.7,8.1,4.8C8.8,5.7,8.8,6.1,8.7,6.3z"
				/>
			<path class="st2" d="M12.8,6.3c0,0.2-0.2,0.3-0.2,0.3c0,0,0,0,0,0l0.6,1.7c0.1,0,1-0.4,1.3-1.4c0.3-0.9,0-1.9-0.9-3.1
				c-0.5-0.6-0.7-1.2-0.6-1.6c0.1-0.3,0.3-0.5,0.3-0.5L12.5,0c-0.1,0.1-1,0.6-1.2,1.7c-0.2,0.9,0.1,2,0.9,3.1
				C12.9,5.7,12.9,6.1,12.8,6.3z"/>
			<path class="st2" d="M19.2,16.3c-0.4,0-0.8,0-1.2,0.1c0.8-0.9,1.3-2,1.2-3.3C19,10.8,17,9,14.6,9H2.2v10.3c0,1.6,1.3,2.9,2.9,2.9
				h7.5c0.2,0,0.5,0,0.7-0.1c0,0,0,0.1,0,0.1c0,0.2,0,0.5,0,0.7H0v0.2c0,0.6,0.4,1,1,1h12.6c0.8,2.3,3,4,5.6,4
				c3.3,0,5.9-2.7,5.9-5.9S22.4,16.3,19.2,16.3z M9.2,16.5c0.5,0.1,1.1,0.5,1.1,1.2c0,1-0.7,1.2-1.1,1.3V16.5z M3.6,19.3v-9h5v0.6
				c-1.8,0-2.7,1.3-2.7,2.7c0,1.8,1.5,2.3,2.7,2.6V19c-0.8-0.1-1-0.5-1.1-1.1c-0.1-0.3-0.4-0.6-0.7-0.6H6.2c-0.3,0-0.6,0.3-0.5,0.6
				c0.2,1.5,1,2.3,2.9,2.4v0.4H5.1C4.3,20.8,3.6,20.1,3.6,19.3z M8.6,14.6c-0.5-0.1-1.1-0.4-1.1-1.2c0-0.4,0.3-1,1.1-1V14.6z
				 M14.1,19.2c-0.2,0.4-0.4,0.8-0.6,1.3c-0.3,0.2-0.6,0.3-0.9,0.3H9.2v-0.4c2.1-0.1,2.9-1.6,2.9-2.8c0-0.3,0-1.2-0.7-1.8
				c-0.3-0.3-0.9-0.6-2.2-1v-2.4c0.5,0,1,0.1,1.1,1.3l1.2,0c0.2,0,0.4-0.2,0.4-0.4c-0.3-1.9-1.8-2.2-2.7-2.3v-0.6H14l0.1,7.9V19.2z
				 M17.8,13.2c0.1,1.5-0.9,2.8-2.4,3.2l-0.1-5.9C16.7,10.7,17.7,11.8,17.8,13.2z M19.2,26.6c-2.4,0-4.4-2-4.4-4.4s2-4.4,4.4-4.4
				s4.4,2,4.4,4.4S21.6,26.6,19.2,26.6z"/>
		</g>
		<path class="st2" d="M20.1,20.5c-0.3,0.3-0.6,0.6-0.9,0.9c-0.3-0.3-0.6-0.6-0.9-0.9c-0.5-0.5-1.3,0.3-0.8,0.8
			c0.3,0.3,0.6,0.6,0.9,0.9c-0.3,0.3-0.6,0.6-0.9,0.9c-0.5,0.5,0.3,1.3,0.8,0.8c0.3-0.3,0.6-0.6,0.9-0.9c0.3,0.3,0.6,0.6,0.9,0.9
			c0.5,0.5,1.3-0.3,0.8-0.8c-0.3-0.3-0.6-0.6-0.9-0.9c0.3-0.3,0.6-0.6,0.9-0.9C21.4,20.7,20.6,20,20.1,20.5z"/>
	</g>
</g>
</svg>
